{
  "generatedAt": "2026-07-02T17:22:35.653Z",
  "slotId": "july_2src_072026_20260702172235",
  "file": "/home/osboxes/.openclaw/workspace-report/App-report-new/server/data/uploads/july_2src_072026_20260702172235.json",
  "ky": "07.2026",
  "latestMisaRun": {
    "id": "27",
    "finished_at": "2026-07-02T16:42:23.186Z",
    "raw_summary": {
      "dedupe": {
        "inputRows": 252,
        "outputRows": 252,
        "duplicateRowsRemoved": 0
      },
      "paging": {
        "endpoint": "/api/v1/SaleOrders",
        "lastPage": 334,
        "pageBase": "one-based",
        "pageSize": 50,
        "firstPage": 1,
        "totalPages": 334,
        "missingCount": 0,
        "pagesFetched": 334,
        "totalRecords": 16683,
        "fetchedAtGmt7": "2026-07-02T23:42:23+07:00",
        "lastPageSample": {
          "page": 334,
          "rows": 33,
          "lastOrder": "DH479815585",
          "firstOrder": "01.DONA/031.PKĐK LONG BÌNH-TRẢNG BOM"
        },
        "firstPageSample": {
          "page": 1,
          "rows": 50,
          "lastOrder": "DH479800960",
          "firstOrder": "DH479800716"
        },
        "rawFetchedCount": 16683,
        "matchesTotalRecords": true,
        "duplicateSaleOrderNoCount": 84
      },
      "summary": {
        "rows": 252,
        "orders": 76,
        "byBucket": [
          {
            "key": "pending",
            "rows": 249,
            "amount": 2600259136,
            "orders": 74,
            "invoiceExportAmount": 2118313496
          },
          {
            "key": "excluded",
            "rows": 3,
            "amount": 222980000,
            "orders": 2,
            "invoiceExportAmount": 0
          }
        ],
        "byLegalBucket": [
          {
            "key": "01.DONA|pending",
            "rows": 146,
            "amount": 1355793396,
            "orders": 37,
            "invoiceExportAmount": 958846356
          },
          {
            "key": "02.AFP|pending",
            "rows": 103,
            "amount": 1244465740,
            "orders": 37,
            "invoiceExportAmount": 1159467140
          },
          {
            "key": "01.DONA|excluded",
            "rows": 3,
            "amount": 222980000,
            "orders": 2,
            "invoiceExportAmount": 0
          }
        ],
        "byMappingStatus": [
          {
            "key": "mapped",
            "rows": 251,
            "amount": 2619479136,
            "orders": 75,
            "invoiceExportAmount": 2118313496
          },
          {
            "key": "unmapped",
            "rows": 1,
            "amount": 203760000,
            "orders": 1,
            "invoiceExportAmount": 0
          }
        ]
      },
      "pagingAssessment": {
        "ok": true,
        "code": "OK",
        "fatal": false,
        "reason": "MISA paging khớp total_records.",
        "warning": false,
        "mismatchAbs": 0,
        "missingCount": 0,
        "totalRecords": 16683,
        "rawFetchedCount": 16683,
        "allowedMismatchCount": 84
      },
      "insertedOrUpdatedRows": 252
    }
  },
  "summary": {
    "rows": 293,
    "totalRevenue": 2668987096,
    "bySource": {
      "CRM_MISA": {
        "rows": 226,
        "orders": 66,
        "revenue": 2118313496
      },
      "APP_WEB_PARTNER": {
        "rows": 67,
        "orders": 32,
        "revenue": 550673600
      }
    },
    "empCount": 14
  },
  "samples": {
    "misa": [
      {
        "ky": "07.2026",
        "date": "2026-06-30",
        "source": "CRM_MISA",
        "source_order": "DH479815475",
        "source_line_id": "MISA:13258",
        "route": "CL",
        "contractor_code": "AFP",
        "emp_code": "DN005",
        "emp_name": "Nguyễn Thị Dung",
        "raw_emp_code": "DN005",
        "unit_code": "002.BVĐK Thống Nhất ĐN",
        "unit_name": "BVĐK Thống Nhất ĐN",
        "iit_code": "G1.GE.QĐ139.2629.N4.56",
        "product_name": "Parazacol 750",
        "uom": "Lọ",
        "bid_package": "139",
        "quantity": 3780,
        "revenue": 109242000,
        "unit_price": 28900,
        "revenue_basis": "MISA_INVOICE_EXPORTED",
        "revenue_bucket": "pending",
        "revenue_status": "Đề nghị ghi",
        "mapping_status": "mapped"
      },
      {
        "ky": "07.2026",
        "date": "2026-06-30",
        "source": "CRM_MISA",
        "source_order": "DH479815477",
        "source_line_id": "MISA:13434",
        "route": "CL",
        "contractor_code": "DONA",
        "emp_code": "DN006",
        "emp_name": "Nguyễn Trọng Hiếu",
        "raw_emp_code": "DN006",
        "unit_code": "010.BV Quân Y 7B",
        "unit_name": "BV Quân Y 7B",
        "iit_code": "G1.GE.QĐ139.1400.N2.1024",
        "product_name": "Solmelon",
        "uom": "Viên",
        "bid_package": "139",
        "quantity": 10000,
        "revenue": 18900000,
        "unit_price": 1890,
        "revenue_basis": "MISA_INVOICE_EXPORTED",
        "revenue_bucket": "pending",
        "revenue_status": "Đề nghị ghi",
        "mapping_status": "mapped"
      },
      {
        "ky": "07.2026",
        "date": "2026-06-30",
        "source": "CRM_MISA",
        "source_order": "DH479815478",
        "source_line_id": "MISA:13254",
        "route": "NCL",
        "contractor_code": "DONA",
        "emp_code": "DN006",
        "emp_name": "Nguyễn Trọng Hiếu",
        "raw_emp_code": "DN006",
        "unit_code": "157.BV HOÀN MỸ BÌNH PHƯỚC",
        "unit_name": "BV HOÀN MỸ BÌNH PHƯỚC",
        "iit_code": "G1.GE.QĐ139.2295.N4.723",
        "product_name": "Atisyrup zinc",
        "uom": "Ống",
        "bid_package": "139",
        "quantity": 480,
        "revenue": 2304000,
        "unit_price": 4800,
        "revenue_basis": "MISA_INVOICE_EXPORTED",
        "revenue_bucket": "pending",
        "revenue_status": "Đề nghị ghi",
        "mapping_status": "mapped"
      },
      {
        "ky": "07.2026",
        "date": "2026-06-30",
        "source": "CRM_MISA",
        "source_order": "DH479815478",
        "source_line_id": "MISA:13255",
        "route": "NCL",
        "contractor_code": "DONA",
        "emp_code": "DN006",
        "emp_name": "Nguyễn Trọng Hiếu",
        "raw_emp_code": "DN006",
        "unit_code": "157.BV HOÀN MỸ BÌNH PHƯỚC",
        "unit_name": "BV HOÀN MỸ BÌNH PHƯỚC",
        "iit_code": "G1.GE.QĐ139.2007.N4.974",
        "product_name": "Dextromethorphan",
        "uom": "Viên",
        "bid_package": "139",
        "quantity": 600,
        "revenue": 456000,
        "unit_price": 760,
        "revenue_basis": "MISA_INVOICE_EXPORTED",
        "revenue_bucket": "pending",
        "revenue_status": "Đề nghị ghi",
        "mapping_status": "mapped"
      },
      {
        "ky": "07.2026",
        "date": "2026-06-30",
        "source": "CRM_MISA",
        "source_order": "DH479815478",
        "source_line_id": "MISA:13256",
        "route": "NCL",
        "contractor_code": "DONA",
        "emp_code": "DN006",
        "emp_name": "Nguyễn Trọng Hiếu",
        "raw_emp_code": "DN006",
        "unit_code": "157.BV HOÀN MỸ BÌNH PHƯỚC",
        "unit_name": "BV HOÀN MỸ BÌNH PHƯỚC",
        "iit_code": "G1.GE.QĐ139.1104.N2.162",
        "product_name": "Pizar-3",
        "uom": "Viên",
        "bid_package": "139",
        "quantity": 148,
        "revenue": 6643720,
        "unit_price": 44890,
        "revenue_basis": "MISA_INVOICE_EXPORTED",
        "revenue_bucket": "pending",
        "revenue_status": "Đề nghị ghi",
        "mapping_status": "mapped"
      },
      {
        "ky": "07.2026",
        "date": "2026-06-30",
        "source": "CRM_MISA",
        "source_order": "DH479815478",
        "source_line_id": "MISA:13257",
        "route": "NCL",
        "contractor_code": "DONA",
        "emp_code": "DN006",
        "emp_name": "Nguyễn Trọng Hiếu",
        "raw_emp_code": "DN006",
        "unit_code": "157.BV HOÀN MỸ BÌNH PHƯỚC",
        "unit_name": "BV HOÀN MỸ BÌNH PHƯỚC",
        "iit_code": "G1.GE.QĐ139.3004.N4.1029",
        "product_name": "Pimagie",
        "uom": "Viên",
        "bid_package": "139",
        "quantity": 1000,
        "revenue": 1490000,
        "unit_price": 1490,
        "revenue_basis": "MISA_INVOICE_EXPORTED",
        "revenue_bucket": "pending",
        "revenue_status": "Đề nghị ghi",
        "mapping_status": "mapped"
      },
      {
        "ky": "07.2026",
        "date": "2026-06-30",
        "source": "CRM_MISA",
        "source_order": "DH479815479",
        "source_line_id": "MISA:13276",
        "route": "NCL",
        "contractor_code": "AFP",
        "emp_code": "DN006",
        "emp_name": "Nguyễn Trọng Hiếu",
        "raw_emp_code": "DN006",
        "unit_code": "157.BV HOÀN MỸ BÌNH PHƯỚC",
        "unit_name": "BV HOÀN MỸ BÌNH PHƯỚC",
        "iit_code": "G1.GE.QĐ139.2694.N4.949",
        "product_name": "Lifecita 800 DT.",
        "uom": "Viên",
        "bid_package": "139",
        "quantity": 4380,
        "revenue": 20498400,
        "unit_price": 4680,
        "revenue_basis": "MISA_INVOICE_EXPORTED",
        "revenue_bucket": "pending",
        "revenue_status": "Đề nghị ghi",
        "mapping_status": "mapped"
      },
      {
        "ky": "07.2026",
        "date": "2026-06-30",
        "source": "CRM_MISA",
        "source_order": "DH479815479",
        "source_line_id": "MISA:13277",
        "route": "NCL",
        "contractor_code": "AFP",
        "emp_code": "DN006",
        "emp_name": "Nguyễn Trọng Hiếu",
        "raw_emp_code": "DN006",
        "unit_code": "157.BV HOÀN MỸ BÌNH PHƯỚC",
        "unit_name": "BV HOÀN MỸ BÌNH PHƯỚC",
        "iit_code": "G1.GE.QĐ139.2434.N4.48",
        "product_name": "Meloxicam SPM",
        "uom": "Viên",
        "bid_package": "139",
        "quantity": 1200,
        "revenue": 5040000,
        "unit_price": 4200,
        "revenue_basis": "MISA_INVOICE_EXPORTED",
        "revenue_bucket": "pending",
        "revenue_status": "Đề nghị ghi",
        "mapping_status": "mapped"
      },
      {
        "ky": "07.2026",
        "date": "2026-06-30",
        "source": "CRM_MISA",
        "source_order": "DH479815481",
        "source_line_id": "MISA:13327",
        "route": "NCL",
        "contractor_code": "AFP",
        "emp_code": "DN024",
        "emp_name": "Hoàng Văn Hà",
        "raw_emp_code": "DN024",
        "unit_code": "033.PKĐK AN NGÃ TƯ VŨNG TÀU",
        "unit_name": "PKĐK AN NGÃ TƯ VŨNG TÀU",
        "iit_code": "G3.ĐY.QĐ141.134.N3.181",
        "product_name": "Hoạt huyết CM3",
        "uom": "Viên",
        "bid_package": "141",
        "quantity": 6000,
        "revenue": 19500000,
        "unit_price": 3250,
        "revenue_basis": "MISA_INVOICE_EXPORTED",
        "revenue_bucket": "pending",
        "revenue_status": "Đề nghị ghi",
        "mapping_status": "mapped"
      },
      {
        "ky": "07.2026",
        "date": "2026-06-30",
        "source": "CRM_MISA",
        "source_order": "DH479815481",
        "source_line_id": "MISA:13328",
        "route": "NCL",
        "contractor_code": "AFP",
        "emp_code": "DN001",
        "emp_name": "Đặng Xuân Trung",
        "raw_emp_code": "DN001",
        "unit_code": "033.PKĐK AN NGÃ TƯ VŨNG TÀU",
        "unit_name": "PKĐK AN NGÃ TƯ VŨNG TÀU",
        "iit_code": "G3.ĐY.QĐ141.297.N4.215",
        "product_name": "Mecaflu forte",
        "uom": "Viên",
        "bid_package": "141",
        "quantity": 1000,
        "revenue": 380000,
        "unit_price": 380,
        "revenue_basis": "MISA_INVOICE_EXPORTED",
        "revenue_bucket": "pending",
        "revenue_status": "Đề nghị ghi",
        "mapping_status": "mapped"
      }
    ],
    "partner": [
      {
        "ky": "07.2026",
        "date": "2026-06-30",
        "source": "APP_WEB_PARTNER",
        "source_order": "DT-260701-0001",
        "source_line_id": "WEB:2192",
        "route": "NCL",
        "contractor_code": "11.TU.Đ",
        "contractor_name": "Công Ty Tnhh Dược Phẩm Tự Đức",
        "emp_code": "DN019",
        "emp_name": "Dương Thị Mến",
        "raw_emp_code": "DN019",
        "unit_code": "033.PKĐK AN NGÃ TƯ VŨNG TÀU",
        "unit_name": "PKĐK AN NGÃ TƯ VŨNG TÀU",
        "iit_code": "G1.GE.QĐ139.2029.N4.731",
        "product_name": "Flaben 500",
        "uom": "Viên",
        "bid_package": "139",
        "quantity": 6000,
        "revenue": 25200000,
        "unit_price": 4200,
        "revenue_basis": "PARTNER_DELIVERED"
      },
      {
        "ky": "07.2026",
        "date": "2026-06-30",
        "source": "APP_WEB_PARTNER",
        "source_order": "DT-260701-0002",
        "source_line_id": "WEB:2193",
        "route": "NCL",
        "contractor_code": "03.TUE.N",
        "contractor_name": "Công Ty Trách Nhiệm Hữu Hạn Dược Tuệ Nam",
        "emp_code": "DN008",
        "emp_name": "Đoàn Văn Triệu",
        "raw_emp_code": "DN008",
        "unit_code": "033.PKĐK AN LONG KHÁNH",
        "unit_name": "PKĐK AN LONG KHÁNH",
        "iit_code": "G1.GE.QĐ139.1753.N4.872",
        "product_name": "Agihistine 24",
        "uom": "Viên",
        "bid_package": "139",
        "quantity": 5000,
        "revenue": 12450000,
        "unit_price": 2490,
        "revenue_basis": "PARTNER_DELIVERED"
      },
      {
        "ky": "07.2026",
        "date": "2026-06-30",
        "source": "APP_WEB_PARTNER",
        "source_order": "DT-260701-0002",
        "source_line_id": "WEB:2194",
        "route": "NCL",
        "contractor_code": "03.TUE.N",
        "contractor_name": "Công Ty Trách Nhiệm Hữu Hạn Dược Tuệ Nam",
        "emp_code": "DN008",
        "emp_name": "Đoàn Văn Triệu",
        "raw_emp_code": "DN008",
        "unit_code": "033.PKĐK AN LONG KHÁNH",
        "unit_name": "PKĐK AN LONG KHÁNH",
        "iit_code": "G1.GE.QĐ139.2695.N4.949",
        "product_name": "Piracetam 800",
        "uom": "Viên",
        "bid_package": "139",
        "quantity": 5000,
        "revenue": 6000000,
        "unit_price": 1200,
        "revenue_basis": "PARTNER_DELIVERED"
      },
      {
        "ky": "07.2026",
        "date": "2026-06-30",
        "source": "APP_WEB_PARTNER",
        "source_order": "DT-260701-0002",
        "source_line_id": "WEB:2195",
        "route": "NCL",
        "contractor_code": "03.TUE.N",
        "contractor_name": "Công Ty Trách Nhiệm Hữu Hạn Dược Tuệ Nam",
        "emp_code": "DN008",
        "emp_name": "Đoàn Văn Triệu",
        "raw_emp_code": "DN008",
        "unit_code": "033.PKĐK AN LONG KHÁNH",
        "unit_name": "PKĐK AN LONG KHÁNH",
        "iit_code": "G1.GE.QĐ139.2455.N4.536",
        "product_name": "Agidopa 125",
        "uom": "Viên",
        "bid_package": "139",
        "quantity": 600,
        "revenue": 1008000,
        "unit_price": 1680,
        "revenue_basis": "PARTNER_DELIVERED"
      },
      {
        "ky": "07.2026",
        "date": "2026-06-30",
        "source": "APP_WEB_PARTNER",
        "source_order": "DT-260701-0003",
        "source_line_id": "WEB:2196",
        "route": "NCL",
        "contractor_code": "03.TUE.N",
        "contractor_name": "Công Ty Trách Nhiệm Hữu Hạn Dược Tuệ Nam",
        "emp_code": "DN008",
        "emp_name": "Đoàn Văn Triệu",
        "raw_emp_code": "DN008",
        "unit_code": "033.PKĐK AN NGÃ TƯ VŨNG TÀU",
        "unit_name": "PKĐK AN NGÃ TƯ VŨNG TÀU",
        "iit_code": "G1.GE.QĐ139.2695.N4.949",
        "product_name": "Piracetam 800",
        "uom": "Viên",
        "bid_package": "139",
        "quantity": 2000,
        "revenue": 2400000,
        "unit_price": 1200,
        "revenue_basis": "PARTNER_DELIVERED"
      },
      {
        "ky": "07.2026",
        "date": "2026-06-30",
        "source": "APP_WEB_PARTNER",
        "source_order": "DT-260701-0003",
        "source_line_id": "WEB:2197",
        "route": "NCL",
        "contractor_code": "03.TUE.N",
        "contractor_name": "Công Ty Trách Nhiệm Hữu Hạn Dược Tuệ Nam",
        "emp_code": "DN008",
        "emp_name": "Đoàn Văn Triệu",
        "raw_emp_code": "DN008",
        "unit_code": "033.PKĐK AN NGÃ TƯ VŨNG TÀU",
        "unit_name": "PKĐK AN NGÃ TƯ VŨNG TÀU",
        "iit_code": "G1.GE.QĐ139.2902.N4.822",
        "product_name": "Azlobal 4",
        "uom": "Viên",
        "bid_package": "139",
        "quantity": 6000,
        "revenue": 22680000,
        "unit_price": 3780,
        "revenue_basis": "PARTNER_DELIVERED"
      },
      {
        "ky": "07.2026",
        "date": "2026-06-30",
        "source": "APP_WEB_PARTNER",
        "source_order": "DT-260701-0003",
        "source_line_id": "WEB:2198",
        "route": "NCL",
        "contractor_code": "03.TUE.N",
        "contractor_name": "Công Ty Trách Nhiệm Hữu Hạn Dược Tuệ Nam",
        "emp_code": "DN008",
        "emp_name": "Đoàn Văn Triệu",
        "raw_emp_code": "DN008",
        "unit_code": "033.PKĐK AN NGÃ TƯ VŨNG TÀU",
        "unit_name": "PKĐK AN NGÃ TƯ VŨNG TÀU",
        "iit_code": "G1.GE.QĐ139.1961.N4.77",
        "product_name": "Goutcolcin",
        "uom": "Viên",
        "bid_package": "139",
        "quantity": 1000,
        "revenue": 980000,
        "unit_price": 980,
        "revenue_basis": "PARTNER_DELIVERED"
      },
      {
        "ky": "07.2026",
        "date": "2026-06-30",
        "source": "APP_WEB_PARTNER",
        "source_order": "DT-260701-0003",
        "source_line_id": "WEB:2199",
        "route": "NCL",
        "contractor_code": "03.TUE.N",
        "contractor_name": "Công Ty Trách Nhiệm Hữu Hạn Dược Tuệ Nam",
        "emp_code": "DN008",
        "emp_name": "Đoàn Văn Triệu",
        "raw_emp_code": "DN008",
        "unit_code": "033.PKĐK AN NGÃ TƯ VŨNG TÀU",
        "unit_name": "PKĐK AN NGÃ TƯ VŨNG TÀU",
        "iit_code": "G1.GE.QĐ139.1753.N4.872",
        "product_name": "Agihistine 24",
        "uom": "Viên",
        "bid_package": "139",
        "quantity": 2000,
        "revenue": 4980000,
        "unit_price": 2490,
        "revenue_basis": "PARTNER_DELIVERED"
      },
      {
        "ky": "07.2026",
        "date": "2026-06-30",
        "source": "APP_WEB_PARTNER",
        "source_order": "DT-260701-0004",
        "source_line_id": "WEB:2200",
        "route": "NCL",
        "contractor_code": "10.ĐAI.TS",
        "contractor_name": "Công Ty Tnhh Dược Phẩm Và Trang Thiết Bị Y Tế Đại Trường Sơn",
        "emp_code": "DN008",
        "emp_name": "Đoàn Văn Triệu",
        "raw_emp_code": "DN008",
        "unit_code": "033.PKĐK AN NGÃ TƯ VŨNG TÀU",
        "unit_name": "PKĐK AN NGÃ TƯ VŨNG TÀU",
        "iit_code": "G1.GE.QĐ139.1193.N2.52",
        "product_name": "SavNopain 500",
        "uom": "Viên",
        "bid_package": "139",
        "quantity": 6000,
        "revenue": 24000000,
        "unit_price": 4000,
        "revenue_basis": "PARTNER_DELIVERED"
      },
      {
        "ky": "07.2026",
        "date": "2026-06-30",
        "source": "APP_WEB_PARTNER",
        "source_order": "DT-260701-0008",
        "source_line_id": "WEB:2208",
        "route": "NCL",
        "contractor_code": "10.ĐAI.TS",
        "contractor_name": "Công Ty Tnhh Dược Phẩm Và Trang Thiết Bị Y Tế Đại Trường Sơn",
        "emp_code": "DN001",
        "emp_name": "Đặng Xuân Trung",
        "raw_emp_code": "DN001",
        "unit_code": "061.PKĐK Y DƯỢC MIỀN ĐÔNG SÀI GÒN",
        "unit_name": "PKĐK Y DƯỢC MIỀN ĐÔNG SÀI GÒN",
        "iit_code": "G1.GE.QĐ139.981.N2.732",
        "product_name": "SaViDimin",
        "uom": "Viên",
        "bid_package": "139",
        "quantity": 7200,
        "revenue": 11520000,
        "unit_price": 1600,
        "revenue_basis": "PARTNER_DELIVERED"
      }
    ]
  }
}
